…
{% highlight r %}
stations <- as.tbl(stations)
{% endhighlight %}

If we display the tibble you see the difference to a data.frame:


{% highlight r %}
stations
{% endhighlight %}



{% highlight text %}
## # A tibble: 917 × 14
##            `Name of site` `WMO Code`     Country `Climate Zone` `Start Year` `End Year` `Samples Total` `Samples ¹⁸O` `Samples ²H` `Samples ³H` `Show on Map`   Download Plots Statistics
##                     <chr>      <int>       <chr>          <chr>        <int>      <int>           <int>         <int>        <int>        <int>         <chr>      <chr> <chr>      <chr>
## 1            QUITO-INAMHI    8407301     Ecuador            Cfb         1997       2014             204           160          163           13           Map csv | xlsx Plots Statistics
## 2                  MANAUS    8233100      Brazil             Af         1965       1990             312           187          160          180           Map csv | xlsx Plots Statistics
## 3                 CALGARY    7187701      Canada            Dfb         1992       2001             120           116          118            0           Map csv | xlsx Plots Statistics
## 4  LEON/VIRGEN DEL CAMINO     805500       Spain            Cfb         2000       2010             132           120          120          126           Map csv | xlsx Plots Statistics
## 5               ROVANIEMI     284500     Finland            Dfc         2003       2010              96            83           83           54           Map csv | xlsx Plots Statistics
## 6       KABUL (KARIZIMIR)    4094900 Afghanistan            BSk         1962       1991             360           109           86          123           Map csv | xlsx Plots Statistics
## 7                 MALANGE    6621500      Angola             Aw         1969       1983             180            85           66           74           Map csv | xlsx Plots Statistics
## 8                MENONGUE    6641000      Angola            Cwa         1969       1983             180            59           46           57           Map csv | xlsx Plots Statistics
## 9              HALLEY BAY    8902200  Antarctica             EF         1965       2014             600           552          533          504           Map csv | xlsx Plots Statistics
## 10          ROTHERA POINT    8906200  Antarctica             EF         1996       2014             228           196          196           57           Map csv | xlsx Plots Statistics
## # ... with 907 more rows
…
To check what we have done just now we display the data for the first station:


{% highlight r %}
stations$data[[1]]
{% endhighlight %}



{% highlight text %}
## # A tibble: 204 × 24
##    `Name of site` Country `WMO Code`  Latitude Longitude Altitude                     `Type of Site`  `Source of Information` `Sample Name`                 `Media Type`    Date `Begin of Period` `End of Period` Comment   O18 `O18 Laboratory`    H2 `H2 Laboratory`    H3 `H3 Error` `H3 Laboratory` Precipitation `Air Temperature` `Vapour Pressure`
##             <chr>   <chr>      <int>     <dbl>     <dbl>    <int>                              <chr>                    <chr>         <int>                        <chr>   <chr>            <date>          <date>   <chr> <dbl>            <chr> <dbl>           <chr> <dbl>      <dbl>           <chr>         <dbl>             <dbl>             <dbl>
## 1    QUITO-INAMHI      EC    8407301 -0.166667 -78.48333     2789 Precipitation collectors - unknown [Partner: INAMHI, Quito]        199701 Water - Precipitation - rain 1997-01        1997-01-01      1997-01-31    <NA>    NA             <NA>    NA            <NA>    NA         NA            <NA>            NA                NA                NA
## 2    QUITO-INAMHI      EC    8407301 -0.166667 -78.48333     2789 Precipitation collectors - unknown [Partner: INAMHI, Quito]        199702 Water - Precipitation - rain 1997-02        1997-02-01      1997-02-28    <NA>    NA             <NA>    NA            <NA>    NA         NA            <NA>            NA                NA                NA
## 3    QUITO-INAMHI      EC    8407301 -0.166667 -78.48333     2789 Precipitation collectors - unknown [Partner: INAMHI, Quito]        199703 Water - Precipitation - rain 1997-03        1997-03-01      1997-03-31    <NA>    NA             <NA>    NA            <NA>    NA         NA            <NA>            NA                NA                NA
## 4    QUITO-INAMHI      EC    8407301 -0.166667 -78.48333     2789 Precipitation collectors - unknown [Partner: INAMHI, Quito]        199704 Water - Precipitation - rain 1997-04        1997-04-01      1997-04-30    <NA>    NA             <NA>    NA            <NA>    NA         NA            <NA>            NA                NA                NA
## 5    QUITO-INAMHI      EC    8407301 -0.166667 -78.48333     2789 Precipitation collectors - unknown [Partner: INAMHI, Quito]        199705 Water - Precipitation - rain 1997-05        1997-05-01      1997-05-31    <NA>    NA             <NA>    NA            <NA>    NA         NA            <NA>            NA                NA                NA
## 6    QUITO-INAMHI      EC    8407301 -0.166667 -78.48333     2789 Precipitation collectors - unknown [Partner: INAMHI, Quito]        199706 Water - Precipitation - rain 1997-06        1997-06-01      1997-06-30    <NA>    NA             <NA>    NA            <NA>    NA         NA            <NA>            NA                NA                NA
## 7    QUITO-INAMHI      EC    8407301 -0.166667 -78.48333     2789 Precipitation collectors - unknown [Partner: INAMHI, Quito]        199707 Water - Precipitation - rain 1997-07        1997-07-01      1997-07-31    <NA>    NA             <NA>    NA            <NA>    NA         NA            <NA>            NA                NA                NA
## 8    QUITO-INAMHI      EC    8407301 -0.166667 -78.48333     2789 Precipitation collectors - unknown [Partner: INAMHI, Quito]        199708 Water - Precipitation - rain 1997-08        1997-08-01      1997-08-31    <NA>    NA             <NA>    NA            <NA>    NA         NA            <NA>            NA                NA                NA
## 9    QUITO-INAMHI      EC    8407301 -0.166667 -78.48333     2789 Precipitation collectors - unknown [Partner: INAMHI, Quito]        199709 Water - Precipitation - rain 1997-09        1997-09-01      1997-09-30    <NA>    NA             <NA>    NA            <NA>    NA         NA            <NA>            NA                NA                NA
## 10   QUITO-INAMHI      EC    8407301 -0.166667 -78.48333     2789 Precipitation collectors - unknown [Partner: INAMHI, Quito]        199710 Water - Precipitation - rain 1997-10        1997-10-01      1997-10-31    <NA>    NA             <NA>    NA            <NA>    NA         NA            <NA>           153                NA                NA
## # ... with 194 more rows
{% endhighlight %}

Finally have a look with what a "tidy dataframe" we ended up with:

{% highlight r %}
stations
{% endhighlight %}



{% highlight text %}
## # A tibble: 917 × 17
##            `Name of site` `WMO Code`     Country `Climate Zone` `Start Year` `End Year` `Samples Total` `Samples ¹⁸O` `Samples ²H` `Samples ³H` `Show on Map`   Download Plots Statistics                                                            link         destfile                data
##                     <chr>      <chr>       <chr>          <chr>        <int>      <int>           <int>         <int>        <int>        <int>         <chr>      <chr> <chr>      <chr>                                                           <chr>            <chr>              <list>
## 1            QUITO-INAMHI    8407301     Ecuador            Cfb         1997       2014             204           160          163           13           Map csv | xlsx Plots Statistics download.php?siteId=172136&page=gnip&action=download&format=csv data/8407301.csv <tibble [204 × 24]>
## 2                  MANAUS    8233100      Brazil             Af         1965       1990             312           187          160          180           Map csv | xlsx Plots Statistics download.php?siteId=172137&page=gnip&action=download&format=csv data/8233100.csv <tibble [312 × 24]>
## 3                 CALGARY    7187701      Canada            Dfb         1992       2001             120           116          118            0           Map csv | xlsx Plots Statistics download.php?siteId=172138&page=gnip&action=download&format=csv data/7187701.csv <tibble [120 × 24]>
## 4  LEON/VIRGEN DEL CAMINO    0805500       Spain            Cfb         2000       2010             132           120          120          126           Map csv | xlsx Plots Statistics download.php?siteId=172139&page=gnip&action=download&format=csv data/0805500.csv <tibble [132 × 24]>
## 5               ROVANIEMI    0284500     Finland            Dfc         2003       2010              96            83           83           54           Map csv | xlsx Plots Statistics download.php?siteId=172140&page=gnip&action=download&format=csv data/0284500.csv  <tibble [96 × 24]>
## 6       KABUL (KARIZIMIR)    4094900 Afghanistan            BSk         1962       1991             360           109           86          123           Map csv | xlsx Plots Statistics download.php?siteId=172141&page=gnip&action=download&format=csv data/4094900.csv <tibble [360 × 24]>
## 7                 MALANGE    6621500      Angola             Aw         1969       1983             180            85           66           74           Map csv | xlsx Plots Statistics download.php?siteId=172142&page=gnip&action=download&format=csv data/6621500.csv <tibble [180 × 24]>
## 8                MENONGUE    6641000      Angola            Cwa         1969       1983             180            59           46           57           Map csv | xlsx Plots Statistics download.php?siteId=172143&page=gnip&action=download&format=csv data/6641000.csv <tibble [180 × 24]>
## 9              HALLEY BAY    8902200  Antarctica             EF         1965       2014             600           552          533          504           Map csv | xlsx Plots Statistics download.php?siteId=172144&page=gnip&action=download&format=csv data/8902200.csv <tibble [600 × 24]>
## 10          ROTHERA POINT    8906200  Antarctica             EF         1996       2014             228           196          196           57           Map csv | xlsx Plots Statistics download.php?siteId=172145&page=gnip&action=download&format=csv data/8906200.csv <tibble [228 × 24]>
## # ... with 907 more rows
…
