…
See what's in the dataset:


{% highlight r %}
data
{% endhighlight %}



{% highlight text %}
## # A tibble: 153,294 × 19
##    STATIONS_ID MESS_DATUM  QN_3    FX    FM  QN_4   RSK  RSKF   SDK SHK_TAG
##          <dbl>      <dbl> <dbl> <dbl> <dbl> <dbl> <dbl> <dbl> <dbl>   <dbl>
##  1         880   18870101    NA    NA    NA     1   0       0    NA       0
##  2         880   18870102    NA    NA    NA     1   0       0    NA       0
##  3         880   18870103    NA    NA    NA     1   0       0    NA       0
##  4         880   18870104    NA    NA    NA     1   0       0    NA       0
##  5         880   18870105    NA    NA    NA     1   0       0    NA       0
##  6         880   18870106    NA    NA    NA     1   0       0    NA       0
##  7         880   18870107    NA    NA    NA     1   3.3     4    NA       4
##  8         880   18870108    NA    NA    NA     1   0       0    NA       4
##  9         880   18870109    NA    NA    NA     1   0       0    NA       4
## 10         880   18870110    NA    NA    NA     1   0       0    NA       4
## # ℹ 153,284 more rows
## # ℹ 9 more variables: NM <dbl>, VPM <dbl>, PM <dbl>, TMK <dbl>, UPM <dbl>,
## #   TXK <dbl>, TNK <dbl>, TGK <dbl>, eor <chr>
…
